{
    "antifeatures": {
        "Ads": "Aquesta aplicacion conten publicitat"
    },
    "app_categories": {
        "Connectivity": "Connectivitat",
        "Development": "Desvolopament",
        "Games": "Jòcs",
        "Graphics": "Grafics",
        "Internet": "Internet",
        "Money": "Moneda",
        "Multimedia": "Multimèdia",
        "Navigation": "Navegacion",
        "Phone & SMS": "Telefòn e SMS",
        "Reading": "Lectura",
        "Science & Education": "Sciéncia e educacion",
        "Security": "Seguretat",
        "Sports & Health": "Espòrt e santat",
        "System": "Sistèma",
        "Theming": "Tèmas",
        "Time": "Gestion del temps",
        "Writing": "Escritura",
        "show_all_packages": "Veire tot (%d)"
    },
    "index": {
        "download_fdroid": "Telecargar F-Droid",
        "gpg_signature": "Signatura PGP",
        "title": "Qu’es F-Droid ?"
    },
    "navigation": {
        "about": "A prepaus",
        "apps": "Aplicacions",
        "contribute": "Contribuir",
        "documentation": "Documentacion",
        "edit_on_gitlab": "Modificar sus GitLab",
        "forum": "Forum",
        "issues": "Problèmas",
        "news": "Novetats",
        "translate_on_weblate": "Traduire sus Weblate"
    },
    "package": {
        "added_on": "Ajustat lo {{ package_added_date }}",
        "author": "Autor",
        "build_log": "Jornal de versions",
        "changelog": "Jornal de modificacions",
        "download": "Telecargar {{ file_extension }}",
        "flattr": "Flattr",
        "gpg_signature": "Signatura PGP",
        "liberapay": "Liberapay",
        "license": "Licéncia",
        "opencollective": "Open Collective",
        "package_icon_alt": "icòna del paquet",
        "package_screenshot_alt": "captura d’ecran",
        "packages": "Paquets",
        "permissions": "Permissions",
        "source_code": "Còdi font",
        "suggested": "suggerit",
        "technical_info": "Informacions tecnicas",
        "translation": "Traduccion",
        "version_info": "<b>Version {{ package_version }}</b> ({{ package_version_code }})",
        "website": "Site web"
    },
    "sidebars": {
        "lang": {
            "change": "Cambiar"
        }
    }
}
